{"page":1,"per_page":10,"total":158,"total_pages":16,"data":[{"Title":"The Death of Spiderman","Year":2015,"imdbID":"tt5921428"},{"Title":"Beat Feet: Scotty Smiley's Blind Journey to Ironman","Year":2015,"imdbID":"tt5117146"},{"Title":"Maze Runner: The Scorch Trials","Year":2015,"imdbID":"tt4046784"},{"Title":"Into the Grizzly Maze","Year":2015,"imdbID":"tt1694021"},{"Title":"Maze Runner: The Burn Trials","Year":2015,"imdbID":"tt4844320"},{"Title":"A Mind Devoid of Happiness or: The Maze","Year":2015,"imdbID":"tt5037380"},{"Title":"Lard and the Peace Maze","Year":2015,"imdbID":"tt5046522"},{"Title":"Macau Stories III: City Maze","Year":2015,"imdbID":"tt5603106"},{"Title":"Harry Price: Ghost Hunter","Year":2015,"imdbID":"tt4974584"},{"Title":"Harry & Snowman","Year":2015,"imdbID":"tt2898306"}]}